<svg width="192" height="301" viewBox="0 0 192 301" fill="none" xmlns="http://www.w3.org/2000/svg">
<path d="M162.337 153.162H149.605V145.503H177.395V153.162H162.337Z" fill="#D0C151"/>
<path d="M181.485 134.908V142.576H180.291H146.7H145.506V134.908H154.79H172.246H181.485Z" fill="#D0C151"/>
<path d="M144.502 69.5771L144.492 69.6866L144.502 123.437C144.673 125.808 145.642 129.446 147.994 131.99H143.226C138.692 131.99 135 128.27 135 123.702V69.3036C135 64.7355 138.692 61.0244 143.226 61.0244H147.994C145.633 63.5683 144.664 67.1973 144.502 69.5771Z" fill="#D0C151"/>
<path d="M162.048 131.99H154.79C148.311 131.99 147.461 124.039 147.388 123.273V69.7414C147.452 68.9846 148.302 61.0337 154.79 61.0337H162.048V131.99Z" fill="#D0C151"/>
<path d="M182.553 123.328L182.544 69.5771C182.372 67.2064 181.404 63.5683 179.051 61.0244H183.774C188.308 61.0244 192 64.7355 192 69.3036V123.702C192 128.27 188.308 131.99 183.774 131.99H179.051C181.404 129.446 182.372 125.808 182.544 123.437L182.553 123.328Z" fill="#D0C151"/>
<path d="M172.246 61.0244C178.725 61.0244 179.576 68.9662 179.648 69.7321V123.264C179.576 124.021 178.734 131.981 172.246 131.981H164.952V61.0244H172.246Z" fill="#D0C151"/>
<path d="M145.506 58.0976V50.4385H164.952H181.485V58.0976H172.246H154.79H145.506Z" fill="#D0C151"/>
<path d="M164.952 7H162.048V47.5115H164.952V7Z" fill="#D0C151"/>
<path d="M164.663 184.903H162.337V176.906L163.495 175.812L164.663 176.915V184.903Z" fill="#D0C151"/>
<path d="M164.663 162.755L163.495 163.867L162.337 162.773V154.776H164.663V162.755Z" fill="#D0C151"/>
<path d="M163.495 196.418C166.399 196.418 168.753 194.047 168.753 191.121C168.753 188.195 166.399 185.823 163.495 185.823C160.592 185.823 158.238 188.195 158.238 191.121C158.238 194.047 160.592 196.418 163.495 196.418Z" fill="#D0C151"/>
<path d="M165.993 176.468L163.993 174.572L165.993 172.666L168.002 174.572L165.993 176.468Z" fill="#D0C151"/>
<path d="M170.753 167.934L172.762 169.83L170.753 171.736L168.753 169.83L170.753 167.934Z" fill="#D0C151"/>
<path d="M165.993 171.736L163.993 169.83L165.993 167.934L168.002 169.83L165.993 171.736Z" fill="#D0C151"/>
<path d="M163.495 174.107L161.496 172.201L163.495 170.305L165.504 172.201L163.495 174.107Z" fill="#D0C151"/>
<path d="M158.998 174.572L160.998 172.666L163.007 174.572L160.998 176.468L158.998 174.572Z" fill="#D0C151"/>
<path d="M158.247 169.83L156.238 171.736L154.238 169.83L156.238 167.934L158.247 169.83Z" fill="#D0C151"/>
<path d="M160.998 167.934L163.007 169.83L160.998 171.736L158.998 169.83L160.998 167.934Z" fill="#D0C151"/>
<path d="M160.998 163.192L163.007 165.098L160.998 166.995L158.998 165.098L160.998 163.192Z" fill="#D0C151"/>
<path d="M168.002 165.098L165.993 166.995L163.993 165.098L165.993 163.192L168.002 165.098Z" fill="#D0C151"/>
<path d="M163.495 165.563L165.504 167.469L163.495 169.365L161.496 167.469L163.495 165.563Z" fill="#D0C151"/>
<path d="M159.441 204.889H158.211V197.485H168.771V204.889H167.531V230H166.952V204.889H166.699V230H166.12V204.889H165.866V230H165.287V204.889H165.034V230H164.455V204.889H164.201V230H163.613V204.889H163.36V230H162.781V204.889H162.536V230H161.948V204.889H161.695V230H161.116V204.889H160.862V230H160.283V204.889H160.03V230H159.441V204.889Z" fill="#D0C151"/>
<path d="M71.6607 206.513V216.015C71.5516 216.332 69.8381 220.205 53.4891 220.205C37.1509 220.205 35.4375 216.332 35.3283 216.015L35.3174 206.513C40.8508 208.029 46.7443 208.88 52.867 208.935C53.0743 208.946 53.2817 208.946 53.4782 208.946C59.841 208.935 65.9528 208.084 71.6607 206.513Z" fill="#D0C151"/>
<path d="M90.8583 161.507C90.8583 144.661 80.5556 128.306 65.1888 119.174C89.0903 123.505 107 140.842 107 161.507C107 182.171 89.1012 199.519 65.1997 203.851C80.5556 194.697 90.8583 178.342 90.8583 161.507Z" fill="#D0C151"/>
<path d="M60.7905 121.367C76.07 129.495 86.8093 145.533 86.8093 161.506C86.8093 177.49 76.0591 193.528 60.7905 201.645C66.7495 192.251 70.6676 177.042 70.6676 161.506C70.6676 145.97 66.7495 130.761 60.7905 121.367Z" fill="#D0C151"/>
<path d="M16.1526 161.507C16.1526 178.353 26.4553 194.719 41.8221 203.862C17.9097 199.52 0 182.172 0 161.507C0 140.843 17.9206 123.495 41.8221 119.163C26.4444 128.295 16.1526 144.661 16.1526 161.507Z" fill="#D0C151"/>
<path d="M46.2204 201.657C30.9409 193.529 20.1907 177.49 20.1907 161.507C20.1907 145.534 30.9409 129.495 46.2204 121.367C40.2505 130.761 36.3433 145.97 36.3433 161.507C36.3433 177.054 40.2505 192.263 46.2204 201.657Z" fill="#D0C151"/>
<path d="M66.6185 161.507C66.6185 179.443 61.0524 197.336 53.5 204.296C45.9367 197.314 40.3815 179.443 40.3815 161.507C40.3815 143.581 45.9367 125.699 53.5 118.728C61.0524 125.688 66.6185 143.57 66.6185 161.507Z" fill="#D0C151"/>
<path d="M53.5 103.627C69.849 103.627 71.5625 107.5 71.6716 107.817V116.501C65.9637 114.93 59.8519 114.079 53.5 114.079C53.2926 114.079 53.0853 114.079 52.8888 114.09C46.7661 114.133 40.8726 114.984 35.3392 116.512V107.828C35.4375 107.5 37.1509 103.627 53.5 103.627Z" fill="#D0C151"/>
<path d="M51.47 99.6016V0.588867H55.5082V99.6016C54.8533 99.5907 54.1767 99.5797 53.4891 99.5797C52.8124 99.5797 52.1249 99.5907 51.47 99.6016Z" fill="#D0C151"/>
<path d="M53.51 206.917H53.5V206.926H53.51V206.917Z" fill="#D0C151"/>
<path d="M53.5 254.629C57.5445 254.629 60.8232 251.351 60.8232 247.307C60.8232 243.263 57.5445 239.985 53.5 239.985C49.4555 239.985 46.1768 243.263 46.1768 247.307C46.1768 251.351 49.4555 254.629 53.5 254.629Z" fill="#D0C151"/>
<path d="M55.1044 222.769H51.8738V238.959H55.1044V222.769Z" fill="#D0C151"/>
<path d="M47.8575 266.018H46.144V255.773H60.856V266.018H59.1316V300.725H58.3239V266.018H57.9638V300.725H57.1561V266.018H56.8069V300.725H55.9993V266.018H55.6391V300.725H54.8315V266.018H54.4822V300.725H53.6746V266.018H53.3145V300.725H52.5068V266.018H52.1576V300.725H51.3499V266.018H50.9898V300.725H50.1822V266.018H49.8329V300.725H49.0253V266.018H48.6651V300.725H47.8575V266.018Z" fill="#D0C151"/>
</svg>
