<svg width="17" height="13" viewBox="0 0 17 13" fill="none" xmlns="http://www.w3.org/2000/svg">
<path d="M6.08881 12.3218C6.21381 12.5093 6.40131 12.5718 6.65131 12.5718C6.87006 12.5718 7.05756 12.5093 7.21381 12.3218L16.4326 3.13428C16.5576 3.00928 16.6513 2.82178 16.6513 2.57178C16.6513 2.35303 16.5576 2.16553 16.4326 2.00928L15.2763 0.884277C15.1201 0.728027 14.9326 0.634277 14.7138 0.634277C14.4951 0.634277 14.3076 0.728027 14.1513 0.884277L6.65131 8.38428L3.15131 4.88428C2.96381 4.72803 2.77631 4.63428 2.55756 4.63428C2.33881 4.63428 2.15131 4.72803 2.02631 4.88428L0.870056 6.00928C0.713806 6.16553 0.651306 6.35303 0.651306 6.57178C0.651306 6.82178 0.713806 7.00928 0.870056 7.13428L6.08881 12.3218Z" fill="#fcbf49"/>
</svg>
